31	K	B
30	10	B
29	K	L
28	10	L
27	J	B
26	A	B
25	9	B
24	8	B
23	K	H
22	10	H
21	J	L
20	A	L
19	9	L
18	8	L
17	7	B
16	J	H
15	A	H
14	9	H
13	8	H
12	7	L
11	Q	B
10	7	H
9	Q	L
8	K	A
7	10	A
6	Q	H
5	J	A
4	A	A
3	9	A
2	8	A
1	7	A
0	Q	A